[
    {
        "id": 1,
        "name": "Team One",
        "descr": "Descr One"
    },
    {
        "id": 2,
        "name": "Team Two",
        "descr": "Descr Two"
    },
    {
        "id": 3,
        "name": "Team Three",
        "descr": "Descr Three"
    },
    {
        "id": 4,
        "name": "Team Four",
        "descr": "Descr Four"
    },
    {
        "id": 5,
        "name": "Team Five",
        "descr": "Descr Five"
    }
]
